<?xml version="1.0" standalone="no"?>
<!DOCTYPE svg PUBLIC "-//W3C//DTD SVG 20010904//EN"
 "http://www.w3.org/TR/2001/REC-SVG-20010904/DTD/svg10.dtd">
<svg version="1.0" xmlns="http://www.w3.org/2000/svg"
 width="260.000000pt" height="260.000000pt" viewBox="0 0 260.000000 260.000000"
 preserveAspectRatio="xMidYMid meet">
<metadata>
Created by potrace 1.11, written by Peter Selinger 2001-2013
</metadata>
<g transform="translate(0.000000,260.000000) scale(0.100000,-0.100000)"
fill="#000000" stroke="none">
<path d="M1595 2454 c-49 -68 -65 -78 -102 -62 -33 13 -49 18 -86 25 -18 4
-26 11 -25 22 3 17 -2 18 -41 6 -20 -6 -23 -4 -18 9 12 30 -38 11 -81 -31 -7
-7 -52 -24 -99 -39 -98 -30 -136 -28 -186 10 -18 14 -50 32 -70 41 -34 14 -37
14 -45 -3 -10 -17 -8 -87 2 -132 4 -14 9 -38 12 -55 6 -37 33 -90 73 -145 l29
-41 -23 -69 c-13 -38 -31 -101 -41 -140 -17 -70 -18 -72 -46 -68 -16 3 -31 1
-34 -4 -3 -5 -2 -8 3 -7 34 6 63 -3 63 -18 0 -33 -17 -44 -71 -50 -77 -8 -76
-15 1 -11 l64 3 0 -39 c0 -38 -1 -39 -48 -53 -26 -8 -46 -16 -44 -18 2 -2 25
2 51 10 l47 14 6 -27 c18 -72 81 -150 141 -173 l25 -9 -53 -53 c-157 -156
-253 -406 -294 -765 -1 -13 -12 -33 -23 -45 -28 -30 -32 -72 -12 -137 35 -117
105 -204 205 -255 88 -44 178 -57 406 -56 328 1 457 37 571 159 79 84 110 188
78 257 -10 22 -22 64 -25 93 l-7 54 49 48 c80 79 142 228 139 332 -3 85 -29
78 -82 -23 -21 -40 -59 -95 -85 -123 l-46 -50 -33 104 c-54 178 -143 335 -233
416 l-40 37 29 21 c42 30 91 85 111 126 10 19 19 37 20 39 1 2 17 -2 35 -8 30
-10 31 -9 14 4 -11 8 -26 15 -33 15 -9 0 -12 8 -7 28 10 48 12 50 41 55 l28 4
-27 2 c-25 1 -28 5 -28 37 0 35 1 36 34 32 19 -2 32 0 30 4 -3 4 -18 8 -35 8
-21 0 -29 5 -30 18 0 9 -2 24 -4 32 -2 8 -6 31 -10 50 -3 19 -19 74 -35 121
-28 83 -28 88 -13 130 19 55 25 271 9 342 -10 44 -15 52 -36 55 -20 2 -33 -8
-65 -54z"/>
<path d="M750 1780 c-13 -8 -12 -10 3 -10 9 0 17 5 17 10 0 12 -1 12 -20 0z"/>
<path d="M1870 1750 c0 -5 5 -10 11 -10 5 0 7 5 4 10 -3 6 -8 10 -11 10 -2 0
-4 -4 -4 -10z"/>
<path d="M708 1683 c6 -2 18 -2 25 0 6 3 1 5 -13 5 -14 0 -19 -2 -12 -5z"/>
<path d="M1816 1669 c2 -4 22 -9 43 -11 22 -2 37 0 35 3 -2 4 -22 9 -43 11
-22 2 -37 0 -35 -3z"/>
<path d="M1810 1560 c8 -5 20 -10 25 -10 6 0 3 5 -5 10 -8 5 -19 10 -25 10 -5
0 -3 -5 5 -10z"/>
</g>
</svg>
